{
    "info": {
        "_postman_id": "27598d70-9800-4fca-83ea-432fc799b40c",
        "name": "OAuth2",
        "schema": "https://schema.getpostman.com/json/collection/v2.1.0/collection.json"
    },
    "item": [
        {
            "name": "Get a new token",
            "request": {
                "auth": {
                    "type": "basic",
                    "basic": [
                        {
                            "key": "password",
                            "value": "secret",
                            "type": "string"
                        },
                        {
                            "key": "username",
                            "value": "client",
                            "type": "string"
                        }
                    ]
                },
                "method": "POST",
                "header": [
                    {
                        "key": "Content-Type",
                        "value": "application/x-www-form-urlencoded"
                    }
                ],
                "body": {
                    "mode": "urlencoded",
                    "urlencoded": [
                        {
                            "key": "grant_type",
                            "value": "password",
                            "type": "text"
                        },
                        {
                            "key": "username",
                            "value": "admin",
                            "type": "text",
                            "description": ""
                        },
                        {
                            "key": "password",
                            "value": "admin",
                            "type": "text"
                        }
                    ]
                },
                "url": {
                    "raw": "https://tinycampus-api.thm.de/auth/oauth/token",
                    "protocol": "https",
                    "host": [
                        "tinycampus-api",
                        "thm",
                        "de"
                    ],
                    "path": [
                        "auth",
                        "oauth",
                        "token"
                    ]
                }
            },
            "response": []
        },
        {
            "name": "Check token",
            "request": {
                "method": "POST",
                "header": [
                    {
                        "key": "Content-Type",
                        "value": "application/x-www-form-urlencoded"
                    }
                ],
                "body": {
                    "mode": "urlencoded",
                    "urlencoded": [
                        {
                            "key": "token",
                            "value": "0f904193-56ad-4cee-8899-c72e5a7860bc",
                            "description": "",
                            "type": "text"
                        }
                    ]
                },
                "url": {
                    "raw": "http://localhost:8080/oauth/check_token",
                    "protocol": "http",
                    "host": [
                        "localhost"
                    ],
                    "port": "8080",
                    "path": [
                        "oauth",
                        "check_token"
                    ]
                }
            },
            "response": []
        },
        {
            "name": "Get user informations",
            "request": {
                "method": "GET",
                "header": [
                    {
                        "key": "Content-Type",
                        "name": "Content-Type",
                        "value": "application/x-www-form-urlencoded",
                        "type": "text"
                    }
                ],
                "body": {
                    "mode": "urlencoded",
                    "urlencoded": [
                        {
                            "key": "grant_type",
                            "value": "client_credentials",
                            "type": "text",
                            "disabled": true
                        }
                    ]
                },
                "url": {
                    "raw": "http://localhost:8080/user/me",
                    "protocol": "http",
                    "host": [
                        "localhost"
                    ],
                    "port": "8080",
                    "path": [
                        "user",
                        "me"
                    ]
                }
            },
            "response": []
        },
        {
            "name": "http://localhost:8080/timeline/all without login",
            "request": {
                "method": "GET",
                "header": [],
                "body": {
                    "mode": "raw",
                    "raw": ""
                },
                "url": {
                    "raw": "http://localhost:8080/timeline/all",
                    "protocol": "http",
                    "host": [
                        "localhost"
                    ],
                    "port": "8080",
                    "path": [
                        "timeline",
                        "all"
                    ]
                }
            },
            "response": []
        },
        {
            "name": "http://localhost:8080/timeline/all with login",
            "request": {
                "auth": {
                    "type": "noauth"
                },
                "method": "GET",
                "header": [],
                "body": {
                    "mode": "raw",
                    "raw": ""
                },
                "url": {
                    "raw": "http://localhost:8080/timeline/all",
                    "protocol": "http",
                    "host": [
                        "localhost"
                    ],
                    "port": "8080",
                    "path": [
                        "timeline",
                        "all"
                    ]
                }
            },
            "response": []
        },
        {
            "name": "http://localhost:8080/swagger-ui.html with login",
            "request": {
                "method": "GET",
                "header": [],
                "body": {
                    "mode": "raw",
                    "raw": ""
                },
                "url": {
                    "raw": "http://localhost:8080/swagger-ui.html",
                    "protocol": "http",
                    "host": [
                        "localhost"
                    ],
                    "port": "8080",
                    "path": [
                        "swagger-ui.html"
                    ]
                }
            },
            "response": []
        },
        {
            "name": "http://localhost:8080/swagger-ui.html without login Copy",
            "request": {
                "method": "GET",
                "header": [],
                "body": {
                    "mode": "raw",
                    "raw": ""
                },
                "url": {
                    "raw": "http://localhost:8080/swagger-ui.html",
                    "protocol": "http",
                    "host": [
                        "localhost"
                    ],
                    "port": "8080",
                    "path": [
                        "swagger-ui.html"
                    ]
                }
            },
            "response": []
        },
        {
            "name": "http://localhost:8080/timeline/faved",
            "request": {
                "method": "GET",
                "header": [],
                "body": {},
                "url": {
                    "raw": "http://localhost:8080/timeline/faved",
                    "protocol": "http",
                    "host": [
                        "localhost"
                    ],
                    "port": "8080",
                    "path": [
                        "timeline",
                        "faved"
                    ]
                }
            },
            "response": []
        }
    ],
    "auth": {
        "type": "oauth2",
        "oauth2": [
            {
                "key": "accessToken",
                "value": "ead3d67c-f334-42dd-a430-35fb40f58ef4",
                "type": "string"
            },
            {
                "key": "tokenType",
                "value": "bearer",
                "type": "string"
            },
            {
                "key": "addTokenTo",
                "value": "header",
                "type": "string"
            }
        ]
    },
    "event": [
        {
            "listen": "prerequest",
            "script": {
                "id": "36c1bd85-8338-4bb7-aedd-7ec411ac7a05",
                "type": "text/javascript",
                "exec": [
                    ""
                ]
            }
        },
        {
            "listen": "test",
            "script": {
                "id": "1f6c3bea-1d8b-4188-b6c3-b49ac2a872fa",
                "type": "text/javascript",
                "exec": [
                    ""
                ]
            }
        }
    ]
}
